<svg width="40" height="40" viewBox="0 0 40 40" fill="none" xmlns="http://www.w3.org/2000/svg">
<path fill-rule="evenodd" clip-rule="evenodd" d="M25.25 28.75H14.75V39.25H25.25V28.75ZM6 28.75C8.898 28.75 11.25 31.102 11.25 34C11.25 36.898 8.898 39.25 6 39.25C3.102 39.25 0.75 36.898 0.75 34C0.75 31.102 3.102 28.75 6 28.75ZM35.75 29.0492C37.7887 29.7702 39.25 31.7162 39.25 34C39.25 36.898 36.898 39.25 34 39.25C31.102 39.25 28.75 36.898 28.75 34C28.75 31.102 31.102 28.75 34 28.75V21.75H7.75V11.25H0.75V0.75H11.25V11.25H9.5V20H35.75V29.0492ZM23.5 30.5H16.5V37.5H23.5V30.5ZM6 30.5C7.932 30.5 9.5 32.068 9.5 34C9.5 35.932 7.932 37.5 6 37.5C4.068 37.5 2.5 35.932 2.5 34C2.5 32.068 4.068 30.5 6 30.5ZM34 30.5C35.932 30.5 37.5 32.068 37.5 34C37.5 35.932 35.932 37.5 34 37.5C32.068 37.5 30.5 35.932 30.5 34C30.5 32.068 32.068 30.5 34 30.5ZM20 0.75C22.898 0.75 25.25 3.102 25.25 6C25.25 8.898 22.898 11.25 20 11.25C17.102 11.25 14.75 8.898 14.75 6C14.75 3.102 17.102 0.75 20 0.75ZM34 0.75C36.898 0.75 39.25 3.102 39.25 6C39.25 8.898 36.898 11.25 34 11.25C31.102 11.25 28.75 8.898 28.75 6C28.75 3.102 31.102 0.75 34 0.75ZM9.5 2.5H2.5V9.5H9.5V2.5ZM20 2.5C21.932 2.5 23.5 4.068 23.5 6C23.5 7.932 21.932 9.5 20 9.5C18.068 9.5 16.5 7.932 16.5 6C16.5 4.068 18.068 2.5 20 2.5ZM34 2.5C35.932 2.5 37.5 4.068 37.5 6C37.5 7.932 35.932 9.5 34 9.5C32.068 9.5 30.5 7.932 30.5 6C30.5 4.068 32.068 2.5 34 2.5Z" fill="black"/>
</svg>
