<svg width="24" height="24" viewBox="0 0 24 24" fill="none" xmlns="http://www.w3.org/2000/svg">
<rect width="24" height="24" fill="white"/>
<path fill-rule="evenodd" clip-rule="evenodd" d="M8 1H1V4H8V1ZM7 2H2V3H7V2Z" fill="black"/>
<path fill-rule="evenodd" clip-rule="evenodd" d="M23 1H16V4H23V1ZM22 2H17V3H22V2Z" fill="black"/>
<path fill-rule="evenodd" clip-rule="evenodd" d="M8 11.023C7.641 11.253 7.306 11.517 7 11.811V6H2V15H5.174C5.097 15.325 5.045 15.659 5.019 16H1V5H8V11.023ZM16 11.811V5H23V16H17.981C17.955 15.659 17.903 15.324 17.826 15H22V6H17V13.036C16.717 12.588 16.381 12.177 16 11.811Z" fill="black"/>
<path fill-rule="evenodd" clip-rule="evenodd" d="M11.5 11C14.536 11 17 13.464 17 16.5C17 19.536 14.536 22 11.5 22C8.464 22 6 19.536 6 16.5C6 13.464 8.464 11 11.5 11ZM11.5 12C13.984 12 16 14.016 16 16.5C16 18.984 13.984 21 11.5 21C9.016 21 7 18.984 7 16.5C7 14.016 9.016 12 11.5 12Z" fill="black"/>
<path d="M14 15H9V16H14V15Z" fill="black"/>
<path d="M14 17H9V18H14V17Z" fill="black"/>
<path d="M7 7H2V8H7V7Z" fill="black"/>
<path d="M17 7H22V8H17V7Z" fill="black"/>
<path d="M7 9H2V10H7V9Z" fill="black"/>
<path d="M17 9H22V10H17V9Z" fill="black"/>
<path d="M7 11H2V12H7V11Z" fill="black"/>
<path d="M17 11H22V12H17V11Z" fill="black"/>
<path d="M6 13H2V14H6V13Z" fill="black"/>
<path d="M18 13H22V14H18V13Z" fill="black"/>
<path fill-rule="evenodd" clip-rule="evenodd" d="M8 1H1V4H8V1ZM7 2H2V3H7V2Z" fill="black"/>
<path fill-rule="evenodd" clip-rule="evenodd" d="M23 1H16V4H23V1ZM22 2H17V3H22V2Z" fill="black"/>
<path fill-rule="evenodd" clip-rule="evenodd" d="M8 11.023C7.641 11.253 7.306 11.517 7 11.811V6H2V15H5.174C5.097 15.325 5.045 15.659 5.019 16H1V5H8V11.023ZM16 11.811V5H23V16H17.981C17.955 15.659 17.903 15.324 17.826 15H22V6H17V13.036C16.717 12.588 16.381 12.177 16 11.811Z" fill="black"/>
<path fill-rule="evenodd" clip-rule="evenodd" d="M11.5 11C14.536 11 17 13.464 17 16.5C17 19.536 14.536 22 11.5 22C8.464 22 6 19.536 6 16.5C6 13.464 8.464 11 11.5 11ZM11.5 12C13.984 12 16 14.016 16 16.5C16 18.984 13.984 21 11.5 21C9.016 21 7 18.984 7 16.5C7 14.016 9.016 12 11.5 12Z" fill="black"/>
<path d="M14 15H9V16H14V15Z" fill="black"/>
<path d="M14 17H9V18H14V17Z" fill="black"/>
</svg>
