<svg width="24" height="24" viewBox="0 0 24 24" fill="none" xmlns="http://www.w3.org/2000/svg">
<path fill-rule="evenodd" clip-rule="evenodd" d="M8.00008 11.1952C8.20408 11.2492 8.41808 11.2782 8.63908 11.2782C8.76208 11.2782 8.88208 11.2692 9.00008 11.2522V14.3892L11.2781 12.1112L11.9721 12.8062L8.50008 16.2782L5.02808 12.8062L5.72208 12.1112L8.00008 14.3892V11.1952ZM6.18908 9.27818H2.88908L5.02808 11.4172L4.33308 12.1112L0.861084 8.63918L4.33308 5.16718L5.02808 5.86118L2.61108 8.27818H6.18908C6.15608 8.44018 6.13908 8.60718 6.13908 8.77818C6.13908 8.94918 6.15608 9.11618 6.18908 9.27818ZM11.0891 8.27818H14.3891L11.9721 5.86118L12.6671 5.16718L16.1391 8.63918L12.6671 12.1112L11.9721 11.4172L14.1111 9.27818H11.0891C11.1221 9.11618 11.1391 8.94918 11.1391 8.77818C11.1391 8.60718 11.1221 8.44018 11.0891 8.27818ZM8.00008 6.36118V2.88918L5.72208 5.16718L5.02808 4.47218L8.50008 1.00018L11.9721 4.47218L11.2781 5.16718L9.00008 2.88918V6.30418C8.88208 6.28718 8.76208 6.27818 8.63908 6.27818C8.41808 6.27818 8.20408 6.30718 8.00008 6.36118Z" fill="black"/>
<path fill-rule="evenodd" clip-rule="evenodd" d="M8 22V21H3V12H2V22H8ZM13 21V22H22V15H21V21H13ZM22 7V2H12V3H21V7H22Z" fill="black"/>
<path fill-rule="evenodd" clip-rule="evenodd" d="M10.6966 17.2574L13.5251 20.0858L9.28243 21.5L10.6966 17.2574ZM22.7175 10.8934L19.889 8.065L11.4038 16.5503L14.2322 19.3787L22.7175 10.8934ZM21.3033 10.8934L19.889 9.47922L12.818 16.5503L14.2322 17.9645L21.3033 10.8934Z" fill="black"/>
</svg>
