<svg xmlns="http://www.w3.org/2000/svg" width="64" height="64" fill="none" viewBox="0 0 64 64">
  <path fill="#E5E5E5" d="M55 7H9c-1.106 0-2 .894-2 2v46c0 1.106.894 2 2 2h46c1.106 0 2-.894 2-2V9c0-1.106-.894-2-2-2Zm-43.5 4.5H20v41h-8.5v-41Zm41 41H24V24h28.5v28.5ZM24 20v-8.5h28.5V20H24Z"/>
</svg>
