<svg width="24" height="24" viewBox="0 0 24 24" fill="none" xmlns="http://www.w3.org/2000/svg">
<rect width="24" height="24" fill="white"/>
<path d="M3 2H1V3H3V2Z" fill="black"/>
<path d="M9 2H7V3H9V2Z" fill="black"/>
<path d="M15 2H13V3H15V2Z" fill="black"/>
<path d="M6 2H4V3H6V2Z" fill="black"/>
<path d="M12 2H10V3H12V2Z" fill="black"/>
<path d="M18 2H16V3H18V2Z" fill="black"/>
<path d="M21 2H19V3H21V2Z" fill="black"/>
<path d="M23 2H22V3H23V2Z" fill="black"/>
<path fill-rule="evenodd" clip-rule="evenodd" d="M5 11H1V20H5V11ZM4 12H2V19H4V12Z" fill="black"/>
<path fill-rule="evenodd" clip-rule="evenodd" d="M11 8H7V20H11V8ZM10 9H8V19H10V9Z" fill="black"/>
<path fill-rule="evenodd" clip-rule="evenodd" d="M18.6716 19.0856V15.1716H17.6716V19.0856L16.0506 17.4646L15.3436 18.1716L18.1716 20.9996L20.9996 18.1716L20.2926 17.4646L18.6716 19.0856Z" fill="black"/>
<path fill-rule="evenodd" clip-rule="evenodd" d="M18 13C20.76 13 23 15.24 23 18C23 20.76 20.76 23 18 23C15.24 23 13 20.76 13 18C13 15.24 15.24 13 18 13ZM18 14C20.208 14 22 15.792 22 18C22 20.208 20.208 22 18 22C15.792 22 14 20.208 14 18C14 15.792 15.792 14 18 14Z" fill="black"/>
<path fill-rule="evenodd" clip-rule="evenodd" d="M23 14.684C22.717 14.258 22.38 13.87 22 13.529V5H20V12.342C19.678 12.228 19.344 12.141 19 12.083V4H23V14.684ZM17 12.083C16.656 12.141 16.322 12.228 16 12.342V11H14V13.529C13.62 13.87 13.283 14.258 13 14.684V10H17V12.083Z" fill="black"/>
</svg>
