<svg xmlns="http://www.w3.org/2000/svg" width="48" height="48" fill="none" viewBox="0 0 48 48">
  <path fill="#B5B5B5" d="M6 3H3v39a3 3 0 0 0 3 3h39v-3H6v-4.5h33v-12H6v-6h21v-12H6V3Zm30 25.5v6H6v-6h30Zm-12-18v6H6v-6h18Z"/>
</svg>
