<svg width="32" height="32" viewBox="0 0 32 32" fill="none" xmlns="http://www.w3.org/2000/svg">
<g clip-path="url(#clip0_1_11168)">
<path d="M16.0894 9.77734C12.6227 9.77734 9.86719 12.5329 9.86719 15.9996C9.86719 19.4662 12.6227 22.2218 16.0894 22.2218C19.5561 22.2218 22.3116 19.4662 22.3116 15.9996C22.3116 12.5329 19.5561 9.77734 16.0894 9.77734ZM16.0894 20.444C13.6005 20.444 11.645 18.4885 11.645 15.9996C11.645 13.5107 13.6005 11.5551 16.0894 11.5551C18.5783 11.5551 20.5339 13.5107 20.5339 15.9996C20.5339 18.4885 18.5783 20.444 16.0894 20.444Z" fill="black"/>
<path d="M29.1551 13.0662L26.6662 12.2662L26.1329 10.9329L27.3773 8.62179C27.644 8.08845 27.5551 7.37734 27.1107 6.9329L24.9773 4.79957C24.5329 4.35512 23.8218 4.26623 23.2885 4.5329L20.9773 5.77734L19.644 5.24401L18.844 2.75512C18.6662 2.22179 18.1329 1.77734 17.5107 1.77734H14.4885C13.8662 1.77734 13.3329 2.22179 13.244 2.84401L12.444 5.3329C11.9107 5.42179 11.4662 5.59957 11.0218 5.86623L8.71068 4.62179C8.17734 4.35512 7.46623 4.44401 7.02179 4.88845L4.88845 7.02179C4.44401 7.46623 4.35512 8.17734 4.62179 8.71068L5.77734 10.9329C5.59957 11.3773 5.42179 11.9107 5.24401 12.3551L2.75512 13.1551C2.22179 13.3329 1.77734 13.8662 1.77734 14.4885V17.5107C1.77734 18.1329 2.22179 18.6662 2.84401 18.844L5.3329 19.644L5.86623 20.9773L4.62179 23.2885C4.35512 23.8218 4.44401 24.5329 4.88845 24.9773L7.02179 27.1107C7.46623 27.5551 8.17734 27.644 8.71068 27.3773L11.0218 26.1329L12.3551 26.6662L13.1551 29.244C13.3329 29.7773 13.8662 30.2218 14.4885 30.2218H17.5107C18.1329 30.2218 18.6662 29.7773 18.844 29.244L19.644 26.6662L20.9773 26.1329L23.2885 27.3773C23.8218 27.644 24.5329 27.5551 24.9773 27.1107L27.1107 24.9773C27.5551 24.5329 27.644 23.8218 27.3773 23.2885L26.1329 20.9773L26.6662 19.644L29.244 18.844C29.7773 18.6662 30.2218 18.1329 30.2218 17.5107V14.4885C30.2218 13.8662 29.7773 13.244 29.1551 13.0662ZM28.444 17.244L25.244 18.2218L25.1551 18.6662L24.3551 20.5329L24.0885 20.9773L25.6885 23.9107L23.9107 25.6885L20.9773 24.0885L20.5329 24.3551C19.9107 24.7107 19.2885 24.9773 18.6662 25.1551L18.2218 25.244L17.244 28.444H14.7551L13.7773 25.244L13.3329 25.1551L11.4662 24.3551L11.0218 24.0885L8.08846 25.6885L6.31068 23.9107L7.91068 20.9773L7.64401 20.5329C7.28846 19.9107 7.02179 19.2885 6.84401 18.6662L6.75512 18.2218L3.55512 17.244V14.7551L6.57734 13.8662L6.75512 13.4218C6.9329 12.7107 7.19957 12.0885 7.55512 11.4662L7.82179 11.0218L6.31068 8.08846L8.08846 6.31068L10.9329 7.91068L11.3773 7.64401C11.9996 7.28846 12.6218 7.02179 13.3329 6.84401L13.7773 6.66623L14.7551 3.55512H17.244L18.2218 6.66623L18.6662 6.84401C19.2885 7.02179 19.9107 7.28846 20.5329 7.64401L20.9773 7.91068L23.9107 6.31068L25.6885 8.08846L24.0885 11.0218L24.3551 11.4662C24.7107 12.0885 24.9773 12.7107 25.1551 13.3329L25.244 13.7773L28.444 14.7551V17.244Z" fill="black"/>
</g>
<defs>
<clipPath id="clip0_1_11168">
<rect width="32" height="32" fill="white"/>
</clipPath>
</defs>
</svg>
