<svg width="166" height="37" viewBox="0 0 166 37" fill="none" xmlns="http://www.w3.org/2000/svg">
<g filter="url(#filter0_d_192_58278)">
<path d="M20.748 5.754H22.244V21H20.748V13.674H12.476V21H10.98V5.754H12.476V12.376H20.748V5.754ZM43.0644 21C42.7858 20.252 42.5218 19.5333 42.2724 18.844C42.0231 18.1547 41.7811 17.48 41.5464 16.82H34.1324C33.8831 17.48 33.6338 18.1547 33.3844 18.844C33.1351 19.5333 32.8784 20.252 32.6144 21H31.0524C31.6391 19.416 32.1891 17.942 32.7024 16.578C33.2158 15.1993 33.7144 13.9013 34.1984 12.684C34.6971 11.452 35.1884 10.2713 35.6724 9.142C36.1564 8.01267 36.6698 6.88333 37.2124 5.754H38.5324C39.0751 6.88333 39.5884 8.01267 40.0724 9.142C40.5564 10.2713 41.0404 11.452 41.5244 12.684C42.0231 13.9013 42.5291 15.1993 43.0424 16.578C43.5558 17.942 44.1131 19.416 44.7144 21H43.0644ZM37.8284 7.47C37.2711 8.73133 36.7284 10.0147 36.2004 11.32C35.6871 12.6253 35.1518 14.0333 34.5944 15.544H41.0844C40.5271 14.0333 39.9844 12.6253 39.4564 11.32C38.9284 10.0147 38.3858 8.73133 37.8284 7.47ZM63.6702 10.33C63.6702 11.474 63.3695 12.376 62.7682 13.036C62.1668 13.696 61.3748 14.1727 60.3922 14.466C60.6268 14.7593 60.9275 15.1553 61.2942 15.654C61.6755 16.1527 62.0642 16.7027 62.4602 17.304C62.8562 17.8907 63.2448 18.5067 63.6262 19.152C64.0075 19.7973 64.3302 20.4133 64.5942 21H62.9882C62.6802 20.4133 62.3428 19.8267 61.9762 19.24C61.6242 18.6533 61.2575 18.0887 60.8762 17.546C60.5095 16.9887 60.1502 16.4753 59.7982 16.006C59.4462 15.5367 59.1382 15.126 58.8742 14.774C58.4048 14.818 57.9355 14.84 57.4662 14.84H55.0022V21H53.5062V6.04C54.0342 5.89333 54.6502 5.79067 55.3542 5.732C56.0728 5.65867 56.7328 5.622 57.3342 5.622C59.4315 5.622 61.0082 6.018 62.0642 6.81C63.1348 7.602 63.6702 8.77533 63.6702 10.33ZM57.5102 6.92C56.9528 6.92 56.4615 6.942 56.0362 6.986C55.6255 7.01533 55.2808 7.04467 55.0022 7.074V13.564H57.0702C57.7595 13.564 58.4122 13.5347 59.0282 13.476C59.6442 13.4027 60.1795 13.256 60.6342 13.036C61.0888 12.8013 61.4482 12.4713 61.7122 12.046C61.9762 11.6207 62.1082 11.0413 62.1082 10.308C62.1082 9.63333 61.9762 9.076 61.7122 8.636C61.4482 8.196 61.1035 7.85133 60.6782 7.602C60.2528 7.338 59.7615 7.162 59.2042 7.074C58.6615 6.97133 58.0968 6.92 57.5102 6.92ZM80.5478 18.8C80.4011 18.4333 80.1884 17.9493 79.9098 17.348C79.6458 16.7467 79.3451 16.094 79.0078 15.39C78.6704 14.6713 78.3258 13.938 77.9738 13.19C77.6218 12.4273 77.2844 11.716 76.9618 11.056C76.6391 10.396 76.3531 9.81667 76.1038 9.318C75.8544 8.81933 75.6711 8.46733 75.5538 8.262C75.3631 10.0953 75.2091 12.09 75.0918 14.246C74.9891 16.3873 74.8938 18.6387 74.8058 21H73.3318C73.4638 18.228 73.6104 15.5733 73.7718 13.036C73.9478 10.4987 74.1604 8.07133 74.4098 5.754H75.7298C76.1698 6.48733 76.6391 7.338 77.1378 8.306C77.6364 9.25933 78.1278 10.2567 78.6118 11.298C79.1104 12.3247 79.5871 13.344 80.0418 14.356C80.5111 15.3533 80.9218 16.2553 81.2738 17.062C81.6258 16.2553 82.0291 15.3533 82.4838 14.356C82.9531 13.344 83.4298 12.3247 83.9138 11.298C84.4124 10.2567 84.9111 9.25933 85.4098 8.306C85.9084 7.338 86.3778 6.48733 86.8178 5.754H88.0718C88.3211 8.07133 88.5264 10.4987 88.6878 13.036C88.8638 15.5733 89.0178 18.228 89.1498 21H87.6318C87.5438 18.6387 87.4411 16.3873 87.3238 14.246C87.2211 12.09 87.0744 10.0953 86.8838 8.262C86.7664 8.46733 86.5831 8.81933 86.3338 9.318C86.0844 9.81667 85.7984 10.396 85.4758 11.056C85.1531 11.716 84.8158 12.4273 84.4638 13.19C84.1118 13.938 83.7671 14.6713 83.4298 15.39C83.0924 16.094 82.7844 16.7467 82.5058 17.348C82.2418 17.9493 82.0364 18.4333 81.8898 18.8H80.5478ZM113.025 13.366C113.025 14.6713 112.834 15.8227 112.453 16.82C112.072 17.8173 111.551 18.6533 110.891 19.328C110.246 19.988 109.49 20.4867 108.625 20.824C107.76 21.1613 106.843 21.33 105.875 21.33C104.907 21.33 103.99 21.1613 103.125 20.824C102.26 20.4867 101.497 19.988 100.837 19.328C100.192 18.6533 99.6783 17.8173 99.2969 16.82C98.9156 15.8227 98.7249 14.6713 98.7249 13.366C98.7249 12.0607 98.9156 10.9167 99.2969 9.934C99.6783 8.93667 100.192 8.108 100.837 7.448C101.497 6.77333 102.26 6.26733 103.125 5.93C103.99 5.59267 104.907 5.424 105.875 5.424C106.843 5.424 107.76 5.59267 108.625 5.93C109.49 6.26733 110.246 6.77333 110.891 7.448C111.551 8.108 112.072 8.93667 112.453 9.934C112.834 10.9167 113.025 12.0607 113.025 13.366ZM111.441 13.366C111.441 12.3393 111.309 11.4227 111.045 10.616C110.781 9.79467 110.407 9.098 109.923 8.526C109.439 7.954 108.852 7.52133 108.163 7.228C107.488 6.92 106.726 6.766 105.875 6.766C105.024 6.766 104.254 6.92 103.565 7.228C102.89 7.52133 102.311 7.954 101.827 8.526C101.343 9.098 100.969 9.79467 100.705 10.616C100.441 11.4227 100.309 12.3393 100.309 13.366C100.309 14.3927 100.441 15.3167 100.705 16.138C100.969 16.9447 101.343 17.634 101.827 18.206C102.311 18.778 102.89 19.218 103.565 19.526C104.254 19.834 105.024 19.988 105.875 19.988C106.726 19.988 107.488 19.834 108.163 19.526C108.852 19.218 109.439 18.778 109.923 18.206C110.407 17.634 110.781 16.9447 111.045 16.138C111.309 15.3167 111.441 14.3927 111.441 13.366ZM133.362 21C133.083 20.4867 132.724 19.8853 132.284 19.196C131.859 18.5067 131.389 17.7733 130.876 16.996C130.363 16.204 129.82 15.3973 129.248 14.576C128.676 13.74 128.104 12.9333 127.532 12.156C126.975 11.364 126.425 10.6233 125.882 9.934C125.354 9.24467 124.877 8.65067 124.452 8.152V21H122.978V5.754H124.166C124.914 6.59 125.713 7.558 126.564 8.658C127.429 9.74333 128.273 10.858 129.094 12.002C129.915 13.1313 130.678 14.2387 131.382 15.324C132.101 16.4093 132.687 17.3553 133.142 18.162V5.754H134.616V21H133.362ZM148.718 21V14.73C147.676 13.1313 146.716 11.5913 145.836 10.11C144.97 8.614 144.164 7.162 143.416 5.754H145.154C145.77 7.04467 146.444 8.35733 147.178 9.692C147.926 11.012 148.703 12.2733 149.51 13.476C150.287 12.2733 151.05 11.012 151.798 9.692C152.546 8.35733 153.235 7.04467 153.866 5.754H155.494C154.716 7.14733 153.895 8.59933 153.03 10.11C152.164 11.606 151.226 13.1313 150.214 14.686V21H148.718Z" fill="#CF095C"/>
</g>
<defs>
<filter id="filter0_d_192_58278" x="0.980011" y="0.423996" width="164.514" height="35.906" filterUnits="userSpaceOnUse" color-interpolation-filters="sRGB">
<feFlood flood-opacity="0" result="BackgroundImageFix"/>
<feColorMatrix in="SourceAlpha" type="matrix" values="0 0 0 0 0 0 0 0 0 0 0 0 0 0 0 0 0 0 127 0" result="hardAlpha"/>
<feOffset dy="5"/>
<feGaussianBlur stdDeviation="5"/>
<feComposite in2="hardAlpha" operator="out"/>
<feColorMatrix type="matrix" values="0 0 0 0 0 0 0 0 0 0 0 0 0 0 0 0 0 0 0.25 0"/>
<feBlend mode="normal" in2="BackgroundImageFix" result="effect1_dropShadow_192_58278"/>
<feBlend mode="normal" in="SourceGraphic" in2="effect1_dropShadow_192_58278" result="shape"/>
</filter>
</defs>
</svg>
